{
  "count": 13,
  "next": "http://127.0.0.1:8000/api/v1/tours/?format=json&page=2",
  "previous": null,
  "results": [
    {
      "id": 1,
      "tour_name": "Путешествие по шелковому пути",
      "tour_image": "/abstract01.jpg",
      "tour_country": "Узбекистан",
      "tour_bonus": "Медицинская помощь",
      "tour_price_dollar": 1856,
      "tour_price_sum": 50000000,
      "about_tour": "sadasdasdadqwdaasldkcalksnfkjsdnjkasnd",
      "tour_status": true,
      "hotels_tour": [
        {
          "id": 1,
          "hotel_name": "Lux",
          "hotel_image": "http://127.0.0.1:8000/media/hotel/%D0%A1%D0%BD%D0%B8%D0%BC%D0%BE%D0%BA_%D1%8D%D0%BA%D1%80%D0%B0%D0%BD%D0%B0_1.png",
          "hotel_stars": 2,
          "about_hotel": "",
          "hotel_status": true,
          "hotel_country": "Узбекистан",
          "hotel_city": "Хорезм",
          "types_hotel": [
            { "type_name": "Одномесный" },
            { "type_name": "Двуместный" }
          ],
          "comforts_hotel": [{ "comfort_name": "lux" }],
          "views_hotel": [{ "view_name": "Вид на море" }],
          "sustence_hotel": [{ "sustenance_name": "BB" }],
          "images": []
        }
      ]
    },
    {
      "id": 2,
      "tour_name": "Пройденный путь Амиром Темуром",
      "tour_image": "/abstract03.jpg",
      "tour_country": "Узбекистан",
      "tour_bonus": "sdasd",
      "tour_price_dollar": 1148,
      "tour_price_sum": 11,
      "about_tour": "1",
      "tour_status": true,
      "hotels_tour": [
        {
          "id": 1,
          "hotel_name": "Lux",
          "hotel_image": "http://127.0.0.1:8000/media/hotel/%D0%A1%D0%BD%D0%B8%D0%BC%D0%BE%D0%BA_%D1%8D%D0%BA%D1%80%D0%B0%D0%BD%D0%B0_1.png",
          "hotel_stars": 2,
          "about_hotel": "",
          "hotel_status": true,
          "hotel_country": "Узбекистан",
          "hotel_city": "Хорезм",
          "types_hotel": [
            { "type_name": "Одномесный" },
            { "type_name": "Двуместный" }
          ],
          "comforts_hotel": [{ "comfort_name": "lux" }],
          "views_hotel": [{ "view_name": "Вид на море" }],
          "sustence_hotel": [{ "sustenance_name": "BB" }],
          "images": []
        }
      ]
    },
    {
      "id": 3,
      "tour_name": "История завоевателя Индии",
      "tour_image": "/abstract01.jpg",
      "tour_country": "Узбекистан",
      "tour_bonus": "Медицинская помощь",
      "tour_price_dollar": 800,
      "tour_price_sum": 80000,
      "about_tour": "фывфдлыовдлфыовфы",
      "tour_status": true,
      "hotels_tour": [
        {
          "id": 1,
          "hotel_name": "Lux",
          "hotel_image": "http://127.0.0.1:8000/media/hotel/%D0%A1%D0%BD%D0%B8%D0%BC%D0%BE%D0%BA_%D1%8D%D0%BA%D1%80%D0%B0%D0%BD%D0%B0_1.png",
          "hotel_stars": 2,
          "about_hotel": "",
          "hotel_status": true,
          "hotel_country": "Узбекистан",
          "hotel_city": "Хорезм",
          "types_hotel": [
            { "type_name": "Одномесный" },
            { "type_name": "Двуместный" }
          ],
          "comforts_hotel": [{ "comfort_name": "lux" }],
          "views_hotel": [{ "view_name": "Вид на море" }],
          "sustence_hotel": [{ "sustenance_name": "BB" }],
          "images": []
        }
      ]
    },
    {
      "id": 4,
      "tour_name": "Удивительные изобретения от 8 века",
      "tour_image": "/abstract02.jpg",
      "tour_country": "Узбекистан",
      "tour_bonus": "Медицинская помощь",
      "tour_price_dollar": 700,
      "tour_price_sum": 70000,
      "about_tour": "фывдлфыовлойцшлвьыдсьждьслдфыьвдлфыьвлдфоывлофыщлвофдыльвлфыов",
      "tour_status": true,
      "hotels_tour": [
        {
          "id": 1,
          "hotel_name": "Lux",
          "hotel_image": "http://127.0.0.1:8000/media/hotel/%D0%A1%D0%BD%D0%B8%D0%BC%D0%BE%D0%BA_%D1%8D%D0%BA%D1%80%D0%B0%D0%BD%D0%B0_1.png",
          "hotel_stars": 2,
          "about_hotel": "",
          "hotel_status": true,
          "hotel_country": "Узбекистан",
          "hotel_city": "Хорезм",
          "types_hotel": [
            { "type_name": "Одномесный" },
            { "type_name": "Двуместный" }
          ],
          "comforts_hotel": [{ "comfort_name": "lux" }],
          "views_hotel": [{ "view_name": "Вид на море" }],
          "sustence_hotel": [{ "sustenance_name": "BB" }],
          "images": []
        }
      ]
    }
  ]
}


